Pyramid_Counter/simulation/qsim/Pyramid_Counter.msim.vcd
$comment
	File created using the following command:
		vcd file Pyramid_Counter.msim.vcd -direction
$end
$date
	Mon Nov 11 22:34:01 2019
$end
$version
	ModelSim Version 10.5b
$end
$timescale
	1ps
$end

$scope module Pyramid_Counter_vlg_vec_tst $end
$var reg 1 ! clear $end
$var reg 1 " clock $end
$var reg 1 # enable $end
$var wire 1 $ count [3] $end
$var wire 1 % count [2] $end
$var wire 1 & count [1] $end
$var wire 1 ' count [0] $end
$var wire 1 ( pulse1 $end
$var wire 1 ) pulse2 $end

$scope module i1 $end
$var wire 1 * gnd $end
$var wire 1 + vcc $end
$var wire 1 , unknown $end
$var tri1 1 - devclrn $end
$var tri1 1 . devpor $end
$var tri1 1 / devoe $end
$var wire 1 0 ~QUARTUS_CREATED_GND~I_combout $end
$var wire 1 1 clock~input_o $end
$var wire 1 2 clock~inputCLKENA0_outclk $end
$var wire 1 3 enable~input_o $end
$var wire 1 4 clear~input_o $end
$var wire 1 5 count[0]~5_combout $end
$var wire 1 6 max[3]~0_combout $end
$var wire 1 7 max[3]~1_combout $end
$var wire 1 8 max[2]~5_combout $end
$var wire 1 9 max[2]~6_combout $end
$var wire 1 : max[1]~3_combout $end
$var wire 1 ; max[1]~4_combout $end
$var wire 1 < Equal1~0_combout $end
$var wire 1 = max[0]~2_combout $end
$var wire 1 > count~2_combout $end
$var wire 1 ? count[0]~1_combout $end
$var wire 1 @ count[1]~reg0_q $end
$var wire 1 A Equal0~1_combout $end
$var wire 1 B count~0_combout $end
$var wire 1 C count[0]~reg0_q $end
$var wire 1 D count~3_combout $end
$var wire 1 E count[2]~reg0_q $end
$var wire 1 F Add1~0_combout $end
$var wire 1 G count~4_combout $end
$var wire 1 H count[3]~reg0_q $end
$var wire 1 I Equal0~0_combout $end
$var wire 1 J pulse1~0_combout $end
$var wire 1 K pulse1~reg0_q $end
$var wire 1 L pulse2~0_combout $end
$var wire 1 M pulse2~reg0_q $end
$var wire 1 N max [3] $end
$var wire 1 O max [2] $end
$var wire 1 P max [1] $end
$var wire 1 Q max [0] $end
$upscope $end
$upscope $end
$enddefinitions $end
#0
$dumpvars
0!
0"
1#
0'
0&
0%
0$
0(
0)
0*
1+
x,
1-
1.
1/
00
01
02
13
04
15
06
07
08
09
0:
0;
0<
0=
0>
1?
0@
0A
1B
0C
0D
0E
0F
0G
0H
1I
0J
0K
0L
0M
0Q
0P
0O
0N
$end
#2000
1"
11
12
1C
1'
0B
1>
#4000
0"
01
02
#6000
1"
11
12
0C
1@
1&
0'
1B
#8000
0"
01
02
#10000
0#
1"
03
11
12
0?
05
1C
1'
1D
0B
0>
#12000
0"
01
02
#14000
1"
11
12
#16000
0"
01
02
#18000
1"
11
12
#20000
0"
01
02
#22000
1"
11
12
#24000
0"
01
02
#26000
1"
11
12
#28000
0"
01
02
#30000
1"
11
12
#32000
0"
01
02
#34000
1"
11
12
#36000
0"
01
02
#38000
1"
11
12
#40000
0"
01
02
#42000
1"
11
12
#44000
0"
01
02
#46000
1"
11
12
#48000
0"
01
02
#50000
1"
11
12
#52000
0"
01
02
#54000
1"
11
12
#56000
0"
01
02
#58000
1"
11
12
#60000
0"
01
02
#62000
1"
11
12
#64000
0"
01
02
#66000
1"
11
12
#68000
0"
01
02
#70000
1#
1"
13
11
12
1?
15
#72000
0"
01
02
#74000
1"
11
12
1E
0C
0@
0&
0'
1%
1B
#76000
0"
01
02
#78000
1"
11
12
1C
1'
0B
1>
#80000
0"
01
02
#82000
1"
11
12
0C
1@
1&
0'
1B
#84000
0"
01
02
#86000
1"
11
12
1C
1'
1F
1A
0D
0B
0>
1G
#88000
0"
01
02
#90000
1"
11
12
1H
0E
0C
0@
0&
0'
0%
1$
0A
0I
1B
#92000
0"
01
02
#94000
1"
11
12
1C
1'
0B
1>
#96000
0"
01
02
#98000
1"
11
12
0C
1@
1&
0'
1B
#100000
0"
01
02
#102000
1"
11
12
1C
1'
1D
0B
0>
#104000
0"
01
02
#106000
1"
11
12
1E
0C
0@
0&
0'
1%
1B
#108000
0"
01
02
#110000
1"
11
12
1C
1'
0B
1>
#112000
0"
01
02
#114000
1"
11
12
0C
1@
1&
0'
1B
#116000
0"
01
02
#118000
1"
11
12
1C
1'
0F
1A
0D
0B
0>
1J
0G
1=
#120000
0"
01
02
#122000
1"
11
12
1Q
1K
0H
0E
0C
0@
0&
0'
0%
0$
1(
0A
1:
1I
0?
05
0=
0J
1=
1B
#124000
0"
01
02
#126000
1"
11
12
0K
0(
1?
15
#128000
0"
01
02
#130000
1"
11
12
1C
1'
0B
1>
#132000
0"
01
02
#134000
1"
11
12
0C
1@
1&
0'
1B
#136000
0"
01
02
#138000
1"
11
12
1C
1'
1D
0B
0>
#140000
0"
01
02
#142000
1"
11
12
1E
0C
0@
0&
0'
1%
1B
#144000
0"
01
02
#146000
1"
11
12
1C
1'
0B
1>
#148000
0"
01
02
#150000
1"
11
12
0C
1@
1&
0'
1A
1B
#152000
0"
01
02
#154000
1"
11
12
1C
1'
1F
0A
0D
0B
0>
1G
#156000
0"
01
02
#158000
1"
11
12
1H
0E
0C
0@
0&
0'
0%
1$
0I
1B
#160000
0"
01
02
#162000
1"
11
12
1C
1'
0B
1>
#164000
0"
01
02
#166000
1"
11
12
0C
1@
1&
0'
1B
#168000
0"
01
02
#170000
1"
11
12
1C
1'
1D
0B
0>
#172000
0"
01
02
#174000
1"
11
12
1E
0C
0@
0&
0'
1%
1B
#176000
0"
01
02
#178000
1"
11
12
1C
1'
0B
1>
#180000
0"
01
02
#182000
1"
11
12
0C
1@
1&
0'
1A
1B
1J
0G
0D
0B
0>
0=
1;
#184000
0"
01
02
#186000
1"
11
12
0Q
1P
1K
0H
0E
0@
0&
0%
0$
1(
0A
0F
1I
0?
05
1=
0J
0=
1B
#188000
0"
01
02
#190000
1"
11
12
0K
0(
1?
15
#192000
0"
01
02
#194000
1"
11
12
1C
1'
0B
1>
#196000
0"
01
02
#198000
1"
11
12
0C
1@
1&
0'
1B
#200000
0"
01
02
#202000
1"
11
12
1C
1'
1D
0B
0>
#204000
0"
01
02
#206000
1"
11
12
1E
0C
0@
0&
0'
1%
1B
#208000
0"
01
02
#210000
1"
11
12
1C
1'
1A
0B
1>
#212000
0"
01
02
#214000
1"
11
12
0C
1@
1&
0'
0A
1B
#216000
0"
01
02
#218000
1"
11
12
1C
1'
1F
0D
0B
0>
1G
#220000
0"
01
02
#222000
1"
11
12
1H
0E
0C
0@
0&
0'
0%
1$
0I
1B
#224000
0"
01
02
#226000
1"
11
12
1C
1'
0B
1>
#228000
0"
01
02
#230000
1"
11
12
0C
1@
1&
0'
1B
#232000
0"
01
02
#234000
1"
11
12
1C
1'
1D
0B
0>
#236000
0"
01
02
#238000
1"
11
12
1E
0C
0@
0&
0'
1%
1B
#240000
0"
01
02
#242000
1"
11
12
1C
1'
1A
0B
1>
1J
0G
0D
0>
1=
#244000
0"
01
02
#246000
1"
11
12
1Q
1K
0H
0E
0C
0'
0%
0$
1(
0A
0:
18
0F
1I
0?
05
0=
0J
1=
1B
#248000
0"
01
02
#250000
1"
11
12
0K
0(
1?
15
#252000
0"
01
02
#254000
1"
11
12
1C
1'
0B
1>
#256000
0"
01
02
#258000
1"
11
12
0C
1@
1&
0'
1B
#260000
0"
01
02
#262000
1"
11
12
1C
1'
1D
0B
0>
#264000
0"
01
02
#266000
1"
11
12
1E
0C
0@
0&
0'
1%
1A
1B
#268000
0"
01
02
#270000
1"
11
12
1C
1'
0A
0B
1>
#272000
0"
01
02
#274000
1"
11
12
0C
1@
1&
0'
1B
#276000
0"
01
02
#278000
1"
11
12
1C
1'
1F
0D
0B
0>
1G
#280000
1!
0"
14
01
02
08
0G
0=
0;
19
09
#282000
1"
11
12
0Q
0P
0E
0C
0@
0&
0'
0%
0F
#284000
0"
01
02
#286000
1"
11
12
#288000
0"
01
02
#290000
1"
11
12
#292000
0"
01
02
#294000
1"
11
12
#296000
0"
01
02
#298000
1"
11
12
#300000
0!
0"
04
01
02
1B
#302000
1"
11
12
1C
1'
0B
1>
#304000
0"
01
02
#306000
1"
11
12
0C
1@
1&
0'
1B
#308000
0"
01
02
#310000
1"
11
12
1C
1'
1D
0B
0>
#312000
0"
01
02
#314000
1"
11
12
1E
0C
0@
0&
0'
1%
1B
#316000
0"
01
02
#318000
1"
11
12
1C
1'
0B
1>
#320000
0"
01
02
#322000
1"
11
12
0C
1@
1&
0'
1B
#324000
0"
01
02
#326000
1"
11
12
1C
1'
1F
1A
0D
0B
0>
1G
#328000
0"
01
02
#330000
1"
11
12
1H
0E
0C
0@
0&
0'
0%
1$
0A
0I
1B
#332000
0"
01
02
#334000
1"
11
12
1C
1'
0B
1>
#336000
0"
01
02
#338000
1"
11
12
0C
1@
1&
0'
1B
#340000
0"
01
02
#342000
1"
11
12
1C
1'
1D
0B
0>
#344000
0"
01
02
#346000
1"
11
12
1E
0C
0@
0&
0'
1%
1B
#348000
0"
01
02
#350000
1"
11
12
1C
1'
0B
1>
#352000
0"
01
02
#354000
1"
11
12
0C
1@
1&
0'
1B
#356000
0"
01
02
#358000
1"
11
12
1C
1'
0F
1A
0D
0B
0>
1J
0G
1=
#360000
0"
01
02
#362000
1"
11
12
1Q
1K
0H
0E
0C
0@
0&
0'
0%
0$
1(
0A
1:
1I
0?
05
0=
0J
1=
1B
#364000
0"
01
02
#366000
1"
11
12
0K
0(
1?
15
#368000
0"
01
02
#370000
1"
11
12
1C
1'
0B
1>
#372000
0"
01
02
#374000
1"
11
12
0C
1@
1&
0'
1B
#376000
0"
01
02
#378000
1"
11
12
1C
1'
1D
0B
0>
#380000
0"
01
02
#382000
1"
11
12
1E
0C
0@
0&
0'
1%
1B
#384000
0"
01
02
#386000
1"
11
12
1C
1'
0B
1>
#388000
0"
01
02
#390000
1"
11
12
0C
1@
1&
0'
1A
1B
#392000
0"
01
02
#394000
1"
11
12
1C
1'
1F
0A
0D
0B
0>
1G
#396000
0"
01
02
#398000
1"
11
12
1H
0E
0C
0@
0&
0'
0%
1$
0I
1B
#400000
0"
01
02
#402000
1"
11
12
1C
1'
0B
1>
#404000
0"
01
02
#406000
1"
11
12
0C
1@
1&
0'
1B
#408000
0"
01
02
#410000
1"
11
12
1C
1'
1D
0B
0>
#412000
0"
01
02
#414000
1"
11
12
1E
0C
0@
0&
0'
1%
1B
#416000
0"
01
02
#418000
1"
11
12
1C
1'
0B
1>
#420000
0"
01
02
#422000
1"
11
12
0C
1@
1&
0'
1A
1B
1J
0G
0D
0B
0>
0=
1;
#424000
0"
01
02
#426000
1"
11
12
0Q
1P
1K
0H
0E
0@
0&
0%
0$
1(
0A
0F
1I
0?
05
1=
0J
0=
1B
#428000
0"
01
02
#430000
1"
11
12
0K
0(
1?
15
#432000
0"
01
02
#434000
1"
11
12
1C
1'
0B
1>
#436000
0"
01
02
#438000
1"
11
12
0C
1@
1&
0'
1B
#440000
0"
01
02
#442000
1"
11
12
1C
1'
1D
0B
0>
#444000
0"
01
02
#446000
1"
11
12
1E
0C
0@
0&
0'
1%
1B
#448000
0"
01
02
#450000
1"
11
12
1C
1'
1A
0B
1>
#452000
0"
01
02
#454000
1"
11
12
0C
1@
1&
0'
0A
1B
#456000
0"
01
02
#458000
1"
11
12
1C
1'
1F
0D
0B
0>
1G
#460000
0"
01
02
#462000
1"
11
12
1H
0E
0C
0@
0&
0'
0%
1$
0I
1B
#464000
0"
01
02
#466000
1"
11
12
1C
1'
0B
1>
#468000
0"
01
02
#470000
1"
11
12
0C
1@
1&
0'
1B
#472000
0"
01
02
#474000
1"
11
12
1C
1'
1D
0B
0>
#476000
0"
01
02
#478000
1"
11
12
1E
0C
0@
0&
0'
1%
1B
#480000
0"
01
02
#482000
1"
11
12
1C
1'
1A
0B
1>
1J
0G
0D
0>
1=
#484000
0"
01
02
#486000
1"
11
12
1Q
1K
0H
0E
0C
0'
0%
0$
1(
0A
0:
18
0F
1I
0?
05
0=
0J
1=
1B
#488000
0"
01
02
#490000
1"
11
12
0K
0(
1?
15
#492000
0"
01
02
#494000
1"
11
12
1C
1'
0B
1>
#496000
0"
01
02
#498000
1"
11
12
0C
1@
1&
0'
1B
#500000
0"
01
02
#502000
1"
11
12
1C
1'
1D
0B
0>
#504000
0"
01
02
#506000
1"
11
12
1E
0C
0@
0&
0'
1%
1A
1B
#508000
0"
01
02
#510000
1"
11
12
1C
1'
0A
0B
1>
#512000
0"
01
02
#514000
1"
11
12
0C
1@
1&
0'
1B
#516000
0"
01
02
#518000
1"
11
12
1C
1'
1F
0D
0B
0>
1G
#520000
0"
01
02
#522000
1"
11
12
1H
0E
0C
0@
0&
0'
0%
1$
0I
1B
#524000
0"
01
02
#526000
1"
11
12
1C
1'
0B
1>
#528000
0"
01
02
#530000
1"
11
12
0C
1@
1&
0'
1B
#532000
0"
01
02
#534000
1"
11
12
1C
1'
1D
0B
0>
#536000
0"
01
02
#538000
1"
11
12
1E
0C
0@
0&
0'
1%
1A
1B
1J
0G
0D
0B
0=
0;
19
#540000
0"
01
02
#542000
1"
11
12
0Q
0P
1O
1K
0H
0E
0%
0$
1(
0A
0F
1I
0?
05
1=
0J
0=
1B
#544000
0"
01
02
#546000
1"
11
12
0K
0(
1?
15
#548000
0"
01
02
#550000
1"
11
12
1C
1'
0B
1>
#552000
0"
01
02
#554000
1"
11
12
0C
1@
1&
0'
1B
#556000
0"
01
02
#558000
1"
11
12
1C
1'
1A
1D
0B
0>
#560000
0"
01
02
#562000
1"
11
12
1E
0C
0@
0&
0'
1%
0A
1B
#564000
0"
01
02
#566000
1"
11
12
1C
1'
0B
1>
#568000
0"
01
02
#570000
1"
11
12
0C
1@
1&
0'
1B
#572000
0"
01
02
#574000
1"
11
12
1C
1'
1F
0D
0B
0>
1G
#576000
0"
01
02
#578000
1"
11
12
1H
0E
0C
0@
0&
0'
0%
1$
0I
1B
#580000
0"
01
02
#582000
1"
11
12
1C
1'
0B
1>
#584000
0"
01
02
#586000
1"
11
12
0C
1@
1&
0'
1B
#588000
0"
01
02
#590000
1"
11
12
1C
1'
1A
1D
0B
0>
1J
0G
0D
1=
#592000
0"
01
02
#594000
1"
11
12
1Q
1K
0H
0C
0@
0&
0'
0$
1(
0A
1:
0F
1I
0?
05
0=
0J
1=
1B
#596000
0"
01
02
#598000
1"
11
12
0K
0(
1?
15
#600000
0"
01
02
#602000
1"
11
12
1C
1'
0B
1>
#604000
0"
01
02
#606000
1"
11
12
0C
1@
1&
0'
1A
1B
#608000
0"
01
02
#610000
1"
11
12
1C
1'
0A
1D
0B
0>
#612000
0"
01
02
#614000
1"
11
12
1E
0C
0@
0&
0'
1%
1B
#616000
0"
01
02
#618000
1"
11
12
1C
1'
0B
1>
#620000
0"
01
02
#622000
1"
11
12
0C
1@
1&
0'
1B
#624000
0"
01
02
#626000
1"
11
12
1C
1'
1F
0D
0B
0>
1G
#628000
0"
01
02
#630000
1"
11
12
1H
0E
0C
0@
0&
0'
0%
1$
0I
1B
#632000
0"
01
02
#634000
1"
11
12
1C
1'
0B
1>
#636000
0"
01
02
#638000
1"
11
12
0C
1@
1&
0'
1A
1B
1J
0G
0B
0>
0=
1;
#640000
0"
01
02
#642000
1"
11
12
0Q
1P
1K
0H
0@
0&
0$
1(
0A
0F
1I
0?
05
1=
0J
0=
1B
#644000
0"
01
02
#646000
1"
11
12
0K
0(
1?
15
#648000
0"
01
02
#650000
1"
11
12
1C
1'
1A
0B
1>
#652000
0"
01
02
#654000
1"
11
12
0C
1@
1&
0'
0A
1B
#656000
0"
01
02
#658000
1"
11
12
1C
1'
1D
0B
0>
#660000
0"
01
02
#662000
1"
11
12
1E
0C
0@
0&
0'
1%
1B
#664000
0"
01
02
#666000
1"
11
12
1C
1'
0B
1>
#668000
0"
01
02
#670000
1"
11
12
0C
1@
1&
0'
1B
#672000
0"
01
02
#674000
1"
11
12
1C
1'
1F
0D
0B
0>
1G
#676000
0"
01
02
#678000
1"
11
12
1H
0E
0C
0@
0&
0'
0%
1$
0I
1B
#680000
0"
01
02
#682000
1"
11
12
1C
1'
1A
0B
1>
1J
0G
0>
1=
#684000
0"
01
02
#686000
1"
11
12
1Q
1K
0H
0C
0'
0$
1(
0:
08
16
0F
1I
0?
05
0=
0J
1=
1B
#688000
0"
01
02
#690000
1"
11
12
0K
0(
1?
15
#692000
0"
01
02
#694000
1"
11
12
1C
1'
0A
0B
1>
#696000
0"
01
02
#698000
1"
11
12
0C
1@
1&
0'
1B
#700000
0"
01
02
#702000
1"
11
12
1C
1'
1D
0B
0>
#704000
0"
01
02
#706000
1"
11
12
1E
0C
0@
0&
0'
1%
1B
#708000
0"
01
02
#710000
1"
11
12
1C
1'
0B
1>
#712000
0"
01
02
#714000
1"
11
12
0C
1@
1&
0'
1B
#716000
0"
01
02
#718000
1"
11
12
1C
1'
1F
0D
0B
0>
1G
#720000
0"
01
02
#722000
1"
11
12
1H
0E
0C
0@
0&
0'
0%
1$
1A
0I
1B
1J
0G
0B
0=
0;
09
17
#724000
0"
01
02
#726000
1"
11
12
0Q
0P
0O
1N
1K
0H
0$
1(
0A
0F
0?
05
1=
0J
0=
1B
#728000
0"
01
02
#730000
1"
11
12
0K
0(
1?
15
#732000
0"
01
02
#734000
1"
11
12
1C
1'
0B
1>
#736000
0"
01
02
#738000
1"
11
12
0C
1@
1&
0'
1B
#740000
0"
01
02
#742000
1"
11
12
1C
1'
1D
0B
0>
#744000
0"
01
02
#746000
1"
11
12
1E
0C
0@
0&
0'
1%
1B
#748000
0"
01
02
#750000
1"
11
12
1C
1'
0B
1>
#752000
0"
01
02
#754000
1"
11
12
0C
1@
1&
0'
1B
#756000
0"
01
02
#758000
1"
11
12
1C
1'
1F
1A
0D
0B
0>
1J
1=
#760000
0"
01
02
#762000
1"
11
12
1Q
1K
0E
0C
0@
0&
0'
0%
1(
0A
1:
0F
0?
05
0=
0J
1=
1B
#764000
0"
01
02
#766000
1"
11
12
0K
0(
1?
15
#768000
0"
01
02
#770000
1"
11
12
1C
1'
0B
1>
#772000
0"
01
02
#774000
1"
11
12
0C
1@
1&
0'
1B
#776000
0"
01
02
#778000
1"
11
12
1C
1'
1D
0B
0>
#780000
0"
01
02
#782000
1"
11
12
1E
0C
0@
0&
0'
1%
1B
#784000
0"
01
02
#786000
1"
11
12
1C
1'
0B
1>
#788000
0"
01
02
#790000
1"
11
12
0C
1@
1&
0'
1A
1B
1J
0D
0B
0>
0=
1;
#792000
0"
01
02
#794000
1"
11
12
0Q
1P
1K
0E
0@
0&
0%
1(
0A
0?
05
1=
0J
0=
1B
#796000
0"
01
02
#798000
1"
11
12
0K
0(
1?
15
#800000
0"
01
02
#802000
1"
11
12
1C
1'
0B
1>
#804000
0"
01
02
#806000
1"
11
12
0C
1@
1&
0'
1B
#808000
0"
01
02
#810000
1"
11
12
1C
1'
1D
0B
0>
#812000
0"
01
02
#814000
1"
11
12
1E
0C
0@
0&
0'
1%
1B
#816000
0"
01
02
#818000
1"
11
12
1C
1'
1A
0B
1>
1J
0D
0>
1=
#820000
0"
01
02
#822000
1"
11
12
1Q
1K
0E
0C
0'
0%
1(
0A
0:
18
0?
05
0=
0J
1=
1B
#824000
0"
01
02
#826000
1"
11
12
0K
0(
1?
15
#828000
0"
01
02
#830000
1"
11
12
1C
1'
0B
1>
#832000
0"
01
02
#834000
1"
11
12
0C
1@
1&
0'
1B
#836000
0"
01
02
#838000
1"
11
12
1C
1'
1D
0B
0>
#840000
0"
01
02
#842000
1"
11
12
1E
0C
0@
0&
0'
1%
1A
1B
1J
0D
0B
0=
0;
19
#844000
0"
01
02
#846000
1"
11
12
0Q
0P
1O
1K
0E
0%
1(
0A
0?
05
1=
0J
0=
1B
#848000
0"
01
02
#850000
1"
11
12
0K
0(
1?
15
#852000
0"
01
02
#854000
1"
11
12
1C
1'
0B
1>
#856000
0"
01
02
#858000
1"
11
12
0C
1@
1&
0'
1B
#860000
0"
01
02
#862000
1"
11
12
1C
1'
1A
1D
0B
0>
1J
0D
1=
#864000
0"
01
02
#866000
1"
11
12
1Q
1K
0C
0@
0&
0'
1(
0A
1:
0?
05
0=
0J
1=
1B
#868000
0"
01
02
#870000
1"
11
12
0K
0(
1?
15
#872000
0"
01
02
#874000
1"
11
12
1C
1'
0B
1>
#876000
0"
01
02
#878000
1"
11
12
0C
1@
1&
0'
1A
1B
1J
0B
0>
0=
1;
#880000
0"
01
02
#882000
1"
11
12
0Q
1P
1K
0@
0&
1(
0A
1<
0:
08
06
0?
05
1=
0J
0=
1B
#884000
0"
01
02
#886000
1"
11
12
0K
0(
1?
15
#888000
0"
01
02
#890000
1"
11
12
1C
1'
1A
0B
1>
1L
1J
0>
0;
09
07
#892000
0"
01
02
#894000
1"
11
12
0P
0O
0N
1M
1K
0C
0'
1(
1)
1I
0<
0A
0?
05
0J
0L
1B
#896000
0"
01
02
#898000
1"
11
12
0M
0K
0(
0)
1?
15
#900000
0"
01
02
#902000
1"
11
12
1C
1'
0B
1>
#904000
0"
01
02
#906000
1"
11
12
0C
1@
1&
0'
1B
#908000
0"
01
02
#910000
1"
11
12
1C
1'
1D
0B
0>
#912000
0"
01
02
#914000
1"
11
12
1E
0C
0@
0&
0'
1%
1B
#916000
0"
01
02
#918000
1"
11
12
1C
1'
0B
1>
#920000
0"
01
02
#922000
1"
11
12
0C
1@
1&
0'
1B
#924000
0"
01
02
#926000
1"
11
12
1C
1'
1F
1A
0D
0B
0>
1G
#928000
0"
01
02
#930000
1"
11
12
1H
0E
0C
0@
0&
0'
0%
1$
0A
0I
1B
#932000
0"
01
02
#934000
1"
11
12
1C
1'
0B
1>
#936000
0"
01
02
#938000
1"
11
12
0C
1@
1&
0'
1B
#940000
0"
01
02
#942000
1"
11
12
1C
1'
1D
0B
0>
#944000
0"
01
02
#946000
1"
11
12
1E
0C
0@
0&
0'
1%
1B
#948000
0"
01
02
#950000
1"
11
12
1C
1'
0B
1>
#952000
0"
01
02
#954000
1"
11
12
0C
1@
1&
0'
1B
#956000
0"
01
02
#958000
1"
11
12
1C
1'
0F
1A
0D
0B
0>
1J
0G
1=
#960000
0"
01
02
#962000
1"
11
12
1Q
1K
0H
0E
0C
0@
0&
0'
0%
0$
1(
0A
1:
1I
0?
05
0=
0J
1=
1B
#964000
0"
01
02
#966000
1"
11
12
0K
0(
1?
15
#968000
0"
01
02
#970000
1"
11
12
1C
1'
0B
1>
#972000
0"
01
02
#974000
1"
11
12
0C
1@
1&
0'
1B
#976000
0"
01
02
#978000
1"
11
12
1C
1'
1D
0B
0>
#980000
0"
01
02
#982000
1"
11
12
1E
0C
0@
0&
0'
1%
1B
#984000
0"
01
02
#986000
1"
11
12
1C
1'
0B
1>
#988000
0"
01
02
#990000
1"
11
12
0C
1@
1&
0'
1A
1B
#992000
0"
01
02
#994000
1"
11
12
1C
1'
1F
0A
0D
0B
0>
1G
#996000
0"
01
02
#998000
1"
11
12
1H
0E
0C
0@
0&
0'
0%
1$
0I
1B
