Pulse_Clock/simulation/qsim/Pulse_Clock.msim.vcd
$comment
	File created using the following command:
		vcd file Pulse_Clock.msim.vcd -direction
$end
$date
	Tue Nov 12 09:35:16 2019
$end
$version
	ModelSim Version 10.5b
$end
$timescale
	1ps
$end

$scope module Pulse_Clock_vlg_vec_tst $end
$var reg 1 ! clear $end
$var reg 1 " clock $end
$var reg 1 # enable $end
$var wire 1 $ clk2 $end
$var wire 1 % clk4 $end
$var wire 1 & p1 $end
$var wire 1 ' p2 $end
$var wire 1 ( p3 $end
$var wire 1 ) p4 $end
$var wire 1 * p23 $end

$scope module i1 $end
$var wire 1 + gnd $end
$var wire 1 , vcc $end
$var wire 1 - unknown $end
$var tri1 1 . devclrn $end
$var tri1 1 / devpor $end
$var tri1 1 0 devoe $end
$var wire 1 1 ~QUARTUS_CREATED_GND~I_combout $end
$var wire 1 2 clock~input_o $end
$var wire 1 3 enable~input_o $end
$var wire 1 4 clear~input_o $end
$var wire 1 5 clk2~0_combout $end
$var wire 1 6 clk2~reg0_q $end
$var wire 1 7 clk4~0_combout $end
$var wire 1 8 clk4~reg0_q $end
$var wire 1 9 flag~0_combout $end
$var wire 1 : flag~q $end
$var wire 1 ; Decoder0~0_combout $end
$var wire 1 < Decoder0~1_combout $end
$var wire 1 = Decoder0~2_combout $end
$var wire 1 > Decoder0~3_combout $end
$var wire 1 ? p23~0_combout $end
$upscope $end
$upscope $end
$enddefinitions $end
#0
$dumpvars
1!
0"
1#
0$
0%
0&
0'
0(
0)
0*
0+
1,
x-
1.
1/
10
01
02
13
14
05
06
07
08
09
0:
0;
0<
0=
0>
0?
$end
#10000
1"
12
#20000
0"
02
#30000
0!
1"
04
12
19
17
15
#40000
0"
02
1:
16
1$
05
1;
1&
18
1%
07
#50000
1"
12
1?
1<
0;
0&
1'
1*
#60000
0"
02
0?
0<
1;
1&
0'
0*
06
0$
15
1?
1=
0;
0&
1(
1*
#70000
1"
12
0?
1>
0=
0(
1)
0*
#80000
0"
02
1?
0>
1=
1(
0)
1*
16
1$
05
0?
0=
1;
1&
0(
0*
08
0%
17
#90000
1"
12
1?
1<
0;
0&
1'
1*
#100000
0"
02
0?
0<
1;
1&
0'
0*
06
0$
15
1?
1=
0;
0&
1(
1*
#110000
1"
12
0?
1>
0=
0(
1)
0*
#120000
0"
02
1?
0>
1=
1(
0)
1*
16
1$
05
0?
0=
1;
1&
0(
0*
18
1%
07
#130000
1"
12
1?
1<
0;
0&
1'
1*
#140000
0"
02
0?
0<
1;
1&
0'
0*
06
0$
15
1?
1=
0;
0&
1(
1*
#150000
1"
12
0?
1>
0=
0(
1)
0*
#160000
0"
02
1?
0>
1=
1(
0)
1*
16
1$
05
0?
0=
1;
1&
0(
0*
08
0%
17
#170000
1"
12
1?
1<
0;
0&
1'
1*
#180000
0"
02
0?
0<
1;
1&
0'
0*
06
0$
15
1?
1=
0;
0&
1(
1*
#190000
1"
12
0?
1>
0=
0(
1)
0*
#200000
0"
02
1?
0>
1=
1(
0)
1*
16
1$
05
0?
0=
1;
1&
0(
0*
18
1%
07
#210000
1"
12
1?
1<
0;
0&
1'
1*
#220000
0"
02
0?
0<
1;
1&
0'
0*
06
0$
15
1?
1=
0;
0&
1(
1*
#230000
1"
12
0?
1>
0=
0(
1)
0*
#240000
0"
02
1?
0>
1=
1(
0)
1*
16
1$
05
0?
0=
1;
1&
0(
0*
08
0%
17
#250000
1"
12
1?
1<
0;
0&
1'
1*
#260000
0"
02
0?
0<
1;
1&
0'
0*
06
0$
15
1?
1=
0;
0&
1(
1*
#270000
1"
12
0?
1>
0=
0(
1)
0*
#280000
0"
02
1?
0>
1=
1(
0)
1*
16
1$
05
0?
0=
1;
1&
0(
0*
18
1%
07
#290000
1"
12
1?
1<
0;
0&
1'
1*
#300000
0"
02
0?
0<
1;
1&
0'
0*
06
0$
15
1?
1=
0;
0&
1(
1*
#310000
1"
12
0?
1>
0=
0(
1)
0*
#320000
0"
02
1?
0>
1=
1(
0)
1*
16
1$
05
0?
0=
1;
1&
0(
0*
08
0%
17
#330000
1"
12
1?
1<
0;
0&
1'
1*
#340000
0"
02
0?
0<
1;
1&
0'
0*
06
0$
15
1?
1=
0;
0&
1(
1*
#350000
1"
12
0?
1>
0=
0(
1)
0*
#360000
0"
02
1?
0>
1=
1(
0)
1*
16
1$
05
0?
0=
1;
1&
0(
0*
18
1%
07
#370000
1"
12
1?
1<
0;
0&
1'
1*
#380000
0"
02
0?
0<
1;
1&
0'
0*
06
0$
15
1?
1=
0;
0&
1(
1*
#390000
1"
12
0?
1>
0=
0(
1)
0*
#400000
0"
02
1?
0>
1=
1(
0)
1*
16
1$
05
0?
0=
1;
1&
0(
0*
08
0%
17
#410000
1"
12
1?
1<
0;
0&
1'
1*
#420000
0"
02
0?
0<
1;
1&
0'
0*
06
0$
15
1?
1=
0;
0&
1(
1*
#430000
1"
12
0?
1>
0=
0(
1)
0*
#440000
0"
02
1?
0>
1=
1(
0)
1*
16
1$
05
0?
0=
1;
1&
0(
0*
18
1%
07
#450000
1"
12
1?
1<
0;
0&
1'
1*
#460000
0"
02
0?
0<
1;
1&
0'
0*
06
0$
15
1?
1=
0;
0&
1(
1*
#470000
1"
12
0?
1>
0=
0(
1)
0*
#480000
0"
02
1?
0>
1=
1(
0)
1*
16
1$
05
0?
0=
1;
1&
0(
0*
08
0%
17
#490000
1"
12
1?
1<
0;
0&
1'
1*
#500000
0"
02
0?
0<
1;
1&
0'
0*
06
0$
15
1?
1=
0;
0&
1(
1*
#510000
1"
12
0?
1>
0=
0(
1)
0*
#520000
0"
02
1?
0>
1=
1(
0)
1*
16
1$
05
0?
0=
1;
1&
0(
0*
18
1%
07
#530000
1"
12
1?
1<
0;
0&
1'
1*
#540000
0"
02
0?
0<
1;
1&
0'
0*
06
0$
15
1?
1=
0;
0&
1(
1*
#550000
1"
12
0?
1>
0=
0(
1)
0*
#560000
0"
02
1?
0>
1=
1(
0)
1*
16
1$
05
0?
0=
1;
1&
0(
0*
08
0%
17
#570000
1"
12
1?
1<
0;
0&
1'
1*
#580000
0"
02
0?
0<
1;
1&
0'
0*
06
0$
15
1?
1=
0;
0&
1(
1*
#590000
1"
12
0?
1>
0=
0(
1)
0*
#600000
0"
02
1?
0>
1=
1(
0)
1*
16
1$
05
0?
0=
1;
1&
0(
0*
18
1%
07
#610000
1"
12
1?
1<
0;
0&
1'
1*
#620000
0"
02
0?
0<
1;
1&
0'
0*
06
0$
15
1?
1=
0;
0&
1(
1*
#630000
1"
12
0?
1>
0=
0(
1)
0*
#640000
0"
02
1?
0>
1=
1(
0)
1*
16
1$
05
0?
0=
1;
1&
0(
0*
08
0%
17
#650000
1"
12
1?
1<
0;
0&
1'
1*
#660000
0"
02
0?
0<
1;
1&
0'
0*
06
0$
15
1?
1=
0;
0&
1(
1*
#670000
1"
12
0?
1>
0=
0(
1)
0*
#680000
0"
02
1?
0>
1=
1(
0)
1*
16
1$
05
0?
0=
1;
1&
0(
0*
18
1%
07
#690000
1"
12
1?
1<
0;
0&
1'
1*
#700000
0"
02
0?
0<
1;
1&
0'
0*
06
0$
15
1?
1=
0;
0&
1(
1*
#710000
1"
12
0?
1>
0=
0(
1)
0*
#720000
0"
02
1?
0>
1=
1(
0)
1*
16
1$
05
0?
0=
1;
1&
0(
0*
08
0%
17
#730000
1"
12
1?
1<
0;
0&
1'
1*
#740000
0"
02
0?
0<
1;
1&
0'
0*
06
0$
15
1?
1=
0;
0&
1(
1*
#750000
1"
12
0?
1>
0=
0(
1)
0*
#760000
0"
02
1?
0>
1=
1(
0)
1*
16
1$
05
0?
0=
1;
1&
0(
0*
18
1%
07
#770000
1"
12
1?
1<
0;
0&
1'
1*
#780000
0"
02
0?
0<
1;
1&
0'
0*
06
0$
15
1?
1=
0;
0&
1(
1*
#790000
1"
12
0?
1>
0=
0(
1)
0*
#800000
0"
02
1?
0>
1=
1(
0)
1*
16
1$
05
0?
0=
1;
1&
0(
0*
08
0%
17
#810000
1"
12
1?
1<
0;
0&
1'
1*
#820000
0"
02
0?
0<
1;
1&
0'
0*
06
0$
15
1?
1=
0;
0&
1(
1*
#830000
1"
12
0?
1>
0=
0(
1)
0*
#840000
0"
02
1?
0>
1=
1(
0)
1*
16
1$
05
0?
0=
1;
1&
0(
0*
18
1%
07
#850000
1"
12
1?
1<
0;
0&
1'
1*
#860000
0"
02
0?
0<
1;
1&
0'
0*
06
0$
15
1?
1=
0;
0&
1(
1*
#870000
1"
12
0?
1>
0=
0(
1)
0*
#880000
0"
02
1?
0>
1=
1(
0)
1*
16
1$
05
0?
0=
1;
1&
0(
0*
08
0%
17
#890000
1"
12
1?
1<
0;
0&
1'
1*
#900000
0"
02
0?
0<
1;
1&
0'
0*
06
0$
15
1?
1=
0;
0&
1(
1*
#910000
1"
12
0?
1>
0=
0(
1)
0*
#920000
0"
02
1?
0>
1=
1(
0)
1*
16
1$
05
0?
0=
1;
1&
0(
0*
18
1%
07
#930000
1"
12
1?
1<
0;
0&
1'
1*
#940000
0"
02
0?
0<
1;
1&
0'
0*
06
0$
15
1?
1=
0;
0&
1(
1*
#950000
1"
12
0?
1>
0=
0(
1)
0*
#960000
0"
02
1?
0>
1=
1(
0)
1*
16
1$
05
0?
0=
1;
1&
0(
0*
08
0%
17
#970000
1"
12
1?
1<
0;
0&
1'
1*
#980000
0"
02
0?
0<
1;
1&
0'
0*
06
0$
15
1?
1=
0;
0&
1(
1*
#990000
1"
12
0?
1>
0=
0(
1)
0*
